<?xml version="1.0" encoding="UTF-8" standalone="no"?>
<!-- Created with Inkscape (http://www.inkscape.org/) -->

<svg
   width="1700px"
   height="800px"
   viewBox="0 0 210 297"
   version="1.1"
   id="svg5"
   inkscape:version="1.1.2 (0a00cf5339, 2022-02-04)"
   sodipodi:docname="interblocage.svg"
   xmlns:inkscape="http://www.inkscape.org/namespaces/inkscape"
   xmlns:sodipodi="http://sodipodi.sourceforge.net/DTD/sodipodi-0.dtd"
   xmlns="http://www.w3.org/2000/svg"
   xmlns:svg="http://www.w3.org/2000/svg">
  <sodipodi:namedview
     id="namedview7"
     pagecolor="#ffffff"
     bordercolor="#666666"
     borderopacity="1.0"
     inkscape:pageshadow="2"
     inkscape:pageopacity="0.0"
     inkscape:pagecheckerboard="0"
     inkscape:document-units="mm"
     showgrid="false"
     inkscape:zoom="0.77771465"
     inkscape:cx="878.85705"
     inkscape:cy="456.46562"
     inkscape:window-width="1880"
     inkscape:window-height="2130"
     inkscape:window-x="71"
     inkscape:window-y="0"
     inkscape:window-maximized="0"
     inkscape:current-layer="layer1" />
  <defs
     id="defs2">
    <marker
       style="overflow:visible"
       id="marker59753"
       refX="0.0"
       refY="0.0"
       orient="auto"
       inkscape:stockid="Arrow2Lstart"
       inkscape:isstock="true">
      <path
         transform="scale(1.1) translate(1,0)"
         d="M 8.7185878,4.0337352 L -2.2072895,0.016013256 L 8.7185884,-4.0017078 C 6.9730900,-1.6296469 6.9831476,1.6157441 8.7185878,4.0337352 z "
         style="stroke:context-stroke;fill-rule:evenodd;fill:#000000;stroke-width:0.62500000;stroke-linejoin:round"
         id="path59751" />
    </marker>
    <marker
       style="overflow:visible"
       id="marker59679"
       refX="0.0"
       refY="0.0"
       orient="auto"
       inkscape:stockid="TriangleInL"
       inkscape:isstock="true">
      <path
         transform="scale(-0.8)"
         style="fill-rule:evenodd;fill:#000000;stroke:context-stroke;stroke-width:1.0pt"
         d="M 5.77,0.0 L -2.88,5.0 L -2.88,-5.0 L 5.77,0.0 z "
         id="path59677" />
    </marker>
    <marker
       style="overflow:visible"
       id="TriangleInL"
       refX="0.0"
       refY="0.0"
       orient="auto"
       inkscape:stockid="TriangleInL"
       inkscape:isstock="true">
      <path
         transform="scale(-0.8)"
         style="fill-rule:evenodd;fill:#000000;stroke:context-stroke;stroke-width:1.0pt"
         d="M 5.77,0.0 L -2.88,5.0 L -2.88,-5.0 L 5.77,0.0 z "
         id="path57076" />
    </marker>
    <marker
       style="overflow:visible"
       id="marker59539"
       refX="0.0"
       refY="0.0"
       orient="auto"
       inkscape:stockid="Arrow2Lstart"
       inkscape:isstock="true">
      <path
         transform="scale(1.1) translate(1,0)"
         d="M 8.7185878,4.0337352 L -2.2072895,0.016013256 L 8.7185884,-4.0017078 C 6.9730900,-1.6296469 6.9831476,1.6157441 8.7185878,4.0337352 z "
         style="stroke:context-stroke;fill-rule:evenodd;fill:#000000;stroke-width:0.62500000;stroke-linejoin:round"
         id="path59537" />
    </marker>
    <marker
       style="overflow:visible"
       id="marker58288"
       refX="0.0"
       refY="0.0"
       orient="auto"
       inkscape:stockid="Arrow2Lstart"
       inkscape:isstock="true">
      <path
         transform="scale(1.1) translate(1,0)"
         d="M 8.7185878,4.0337352 L -2.2072895,0.016013256 L 8.7185884,-4.0017078 C 6.9730900,-1.6296469 6.9831476,1.6157441 8.7185878,4.0337352 z "
         style="stroke:context-stroke;fill-rule:evenodd;fill:#000000;stroke-width:0.62500000;stroke-linejoin:round"
         id="path58286" />
    </marker>
    <marker
       style="overflow:visible"
       id="marker58226"
       refX="0.0"
       refY="0.0"
       orient="auto"
       inkscape:stockid="Arrow2Lstart"
       inkscape:isstock="true">
      <path
         transform="scale(1.1) translate(1,0)"
         d="M 8.7185878,4.0337352 L -2.2072895,0.016013256 L 8.7185884,-4.0017078 C 6.9730900,-1.6296469 6.9831476,1.6157441 8.7185878,4.0337352 z "
         style="stroke:context-stroke;fill-rule:evenodd;fill:#000000;stroke-width:0.62500000;stroke-linejoin:round"
         id="path58224" />
    </marker>
    <marker
       style="overflow:visible"
       id="Arrow2Lstart"
       refX="0.0"
       refY="0.0"
       orient="auto"
       inkscape:stockid="Arrow2Lstart"
       inkscape:isstock="true">
      <path
         transform="scale(1.1) translate(1,0)"
         d="M 8.7185878,4.0337352 L -2.2072895,0.016013256 L 8.7185884,-4.0017078 C 6.9730900,-1.6296469 6.9831476,1.6157441 8.7185878,4.0337352 z "
         style="stroke:context-stroke;fill-rule:evenodd;fill:#000000;stroke-width:0.62500000;stroke-linejoin:round"
         id="path56961" />
    </marker>
    <marker
       style="overflow:visible;"
       id="marker58158"
       refX="0.0"
       refY="0.0"
       orient="auto"
       inkscape:stockid="Arrow2Lend"
       inkscape:isstock="true">
      <path
         transform="scale(1.1) rotate(180) translate(1,0)"
         d="M 8.7185878,4.0337352 L -2.2072895,0.016013256 L 8.7185884,-4.0017078 C 6.9730900,-1.6296469 6.9831476,1.6157441 8.7185878,4.0337352 z "
         style="stroke:context-stroke;fill-rule:evenodd;fill:#000000;stroke-width:0.62500000;stroke-linejoin:round;"
         id="path58156" />
    </marker>
    <marker
       style="overflow:visible;"
       id="marker57213"
       refX="0.0"
       refY="0.0"
       orient="auto"
       inkscape:stockid="Arrow2Lend"
       inkscape:isstock="true">
      <path
         transform="scale(1.1) rotate(180) translate(1,0)"
         d="M 8.7185878,4.0337352 L -2.2072895,0.016013256 L 8.7185884,-4.0017078 C 6.9730900,-1.6296469 6.9831476,1.6157441 8.7185878,4.0337352 z "
         style="stroke:context-stroke;fill-rule:evenodd;fill:#000000;stroke-width:0.62500000;stroke-linejoin:round;"
         id="path57211" />
    </marker>
    <marker
       style="overflow:visible;"
       id="Arrow2Lend"
       refX="0.0"
       refY="0.0"
       orient="auto"
       inkscape:stockid="Arrow2Lend"
       inkscape:isstock="true">
      <path
         transform="scale(1.1) rotate(180) translate(1,0)"
         d="M 8.7185878,4.0337352 L -2.2072895,0.016013256 L 8.7185884,-4.0017078 C 6.9730900,-1.6296469 6.9831476,1.6157441 8.7185878,4.0337352 z "
         style="stroke:context-stroke;fill-rule:evenodd;fill:#000000;stroke-width:0.62500000;stroke-linejoin:round;"
         id="path56964" />
    </marker>
    <linearGradient
       id="linearGradient8072"
       inkscape:swatch="solid">
      <stop
         style="stop-color:#ff1947;stop-opacity:1;"
         offset="0"
         id="stop8070" />
    </linearGradient>
    <marker
       style="overflow:visible"
       id="marker57213-2"
       refX="0"
       refY="0"
       orient="auto"
       inkscape:stockid="Arrow2Lend"
       inkscape:isstock="true">
      <path
         transform="matrix(-1.1,0,0,-1.1,-1.1,0)"
         d="M 8.7185878,4.0337352 -2.2072895,0.01601326 8.7185884,-4.0017078 c -1.7454984,2.3720609 -1.7354408,5.6174519 -6e-7,8.035443 z"
         style="fill:#000000;fill-rule:evenodd;stroke:context-stroke;stroke-width:0.625;stroke-linejoin:round"
         id="path57211-9" />
    </marker>
    <marker
       style="overflow:visible"
       id="marker57213-3"
       refX="0"
       refY="0"
       orient="auto"
       inkscape:stockid="Arrow2Lend"
       inkscape:isstock="true">
      <path
         transform="matrix(-1.1,0,0,-1.1,-1.1,0)"
         d="M 8.7185878,4.0337352 -2.2072895,0.01601326 8.7185884,-4.0017078 c -1.7454984,2.3720609 -1.7354408,5.6174519 -6e-7,8.035443 z"
         style="fill:#000000;fill-rule:evenodd;stroke:context-stroke;stroke-width:0.625;stroke-linejoin:round"
         id="path57211-6" />
    </marker>
    <marker
       style="overflow:visible"
       id="marker57213-3-6"
       refX="0"
       refY="0"
       orient="auto"
       inkscape:stockid="Arrow2Lend"
       inkscape:isstock="true">
      <path
         transform="matrix(-1.1,0,0,-1.1,-1.1,0)"
         d="M 8.7185878,4.0337352 -2.2072895,0.01601326 8.7185884,-4.0017078 c -1.7454984,2.3720609 -1.7354408,5.6174519 -6e-7,8.035443 z"
         style="fill:#000000;fill-rule:evenodd;stroke:context-stroke;stroke-width:0.625;stroke-linejoin:round"
         id="path57211-6-2" />
    </marker>
    <marker
       style="overflow:visible"
       id="Arrow2Lend-1"
       refX="0"
       refY="0"
       orient="auto"
       inkscape:stockid="Arrow2Lend"
       inkscape:isstock="true">
      <path
         transform="matrix(-1.1,0,0,-1.1,-1.1,0)"
         d="M 8.7185878,4.0337352 -2.2072895,0.01601326 8.7185884,-4.0017078 c -1.7454984,2.3720609 -1.7354408,5.6174519 -6e-7,8.035443 z"
         style="fill:#000000;fill-rule:evenodd;stroke:context-stroke;stroke-width:0.625;stroke-linejoin:round"
         id="path56964-8" />
    </marker>
  </defs>
  <g
     inkscape:label="Calque 1"
     inkscape:groupmode="layer"
     id="layer1">
    <ellipse
       style="fill:#beeefc;fill-opacity:1;stroke:#20a9f3;stroke-width:4.20945;stroke-linejoin:round;stroke-miterlimit:4;stroke-dasharray:none;stroke-opacity:1;paint-order:markers stroke fill"
       id="path1158"
       cx="103.6525"
       cy="80.220726"
       rx="18.25086"
       ry="18.998323" />
    <ellipse
       style="fill:#beeefc;fill-opacity:1;stroke:#20a9f3;stroke-width:4.20945;stroke-linejoin:round;stroke-miterlimit:4;stroke-dasharray:none;stroke-opacity:1;paint-order:markers stroke fill"
       id="path1158-3"
       cx="105.93847"
       cy="185.24422"
       rx="18.25086"
       ry="18.998323" />
    <text
       xml:space="preserve"
       style="font-size:14.85px;line-height:1.05;font-family:sans-serif;stroke-width:0.37125;fill:#000000;fill-opacity:1"
       x="94.794121"
       y="84.972191"
       id="text4616"><tspan
         sodipodi:role="line"
         id="tspan4614"
         style="stroke-width:0.37125;fill:#000000;fill-opacity:1"
         x="94.794121"
         y="84.972191">P1</tspan></text>
    <text
       xml:space="preserve"
       style="font-size:14.85px;line-height:1.05;font-family:sans-serif;stroke-width:0.37125;fill:#000000;fill-opacity:1"
       x="97.818878"
       y="190.61583"
       id="text4616-6"><tspan
         sodipodi:role="line"
         id="tspan4614-7"
         style="stroke-width:0.37125;fill:#000000;fill-opacity:1"
         x="97.818878"
         y="190.61583">P2</tspan></text>
    <rect
       style="fill:#fcd3b9;fill-opacity:0.93219697;stroke:#ee5c28;stroke-width:2.80629921;stroke-linejoin:round;stroke-miterlimit:4;stroke-dasharray:none;stroke-opacity:1;paint-order:markers stroke fill"
       id="rect19794"
       width="96.221085"
       height="145.19174"
       x="-175.80722"
       y="56.207256" />
    <rect
       style="fill:#fcd3b9;fill-opacity:0.93219697;stroke:#ee5c28;stroke-width:2.80629921;stroke-linejoin:round;stroke-miterlimit:4;stroke-dasharray:none;stroke-opacity:1;paint-order:markers stroke fill"
       id="rect19794-3"
       width="96.221085"
       height="145.19174"
       x="286.68719"
       y="60.389828" />
    <text
       xml:space="preserve"
       style="font-size:14.85px;line-height:1.05;font-family:sans-serif;stroke-width:0.37125;fill:#000000;fill-opacity:1"
       x="-23.553822"
       y="128.08928"
       id="text52749"><tspan
         sodipodi:role="line"
         id="tspan52747"
         style="stroke-width:0.37125;fill:#000000;fill-opacity:1"
         x="-23.553822"
         y="128.08928">P1 commuté</tspan><tspan
         sodipodi:role="line"
         style="stroke-width:0.37125;fill:#000000;fill-opacity:1"
         x="-23.553822"
         y="143.68178"
         id="tspan52751">car demande R2</tspan></text>
    <text
       xml:space="preserve"
       style="font-size:14.85px;line-height:1.05;font-family:sans-serif;stroke-width:0.37125;fill:#000000;fill-opacity:1"
       x="159.17136"
       y="129.85539"
       id="text52749-3"><tspan
         sodipodi:role="line"
         id="tspan52747-5"
         style="stroke-width:0.37125;fill:#000000;fill-opacity:1"
         x="159.17136"
         y="129.85539">P2 commuté</tspan><tspan
         sodipodi:role="line"
         style="stroke-width:0.37125;fill:#000000;fill-opacity:1"
         x="159.17136"
         y="145.44789"
         id="tspan52751-6">car demande R1</tspan></text>
    <path
       style="fill:none;stroke:#000000;stroke-width:1.40315;stroke-linecap:butt;stroke-linejoin:miter;stroke-miterlimit:4;stroke-dasharray:none;stroke-opacity:1;marker-start:url(#marker58288)"
       d="m 94.271917,203.18827 -0.80904,31.38981 -222.970897,0.7031 0.11357,-84.18595"
       id="path56770-0"
       sodipodi:nodetypes="cccc" />
    <path
       style="fill:none;stroke:#000000;stroke-width:1.40315;stroke-linecap:butt;stroke-linejoin:miter;stroke-miterlimit:4;stroke-dasharray:none;stroke-opacity:1;marker-end:url(#marker57213-3-6)"
       d="m 115.39743,202.53195 0.80904,33.96961 222.97089,0.7031 0.211,-79.84071"
       id="path56770-0-6"
       sodipodi:nodetypes="cccc" />
    <path
       style="fill:none;stroke:#000000;stroke-width:1.40315;stroke-linecap:butt;stroke-linejoin:miter;stroke-miterlimit:4;stroke-dasharray:none;stroke-opacity:1;marker-start:url(#Arrow2Lstart)"
       d="m 111.21212,61.473791 0.80903,-33.96961 226.90178,0.460899 0.13921,93.73601"
       id="path56770-1"
       sodipodi:nodetypes="cccc" />
    <rect
       style="fill:#f1a695;fill-opacity:1;stroke:#ee5c28;stroke-width:4.20945;stroke-linejoin:round;stroke-miterlimit:4;stroke-dasharray:none;stroke-opacity:1;paint-order:markers stroke fill"
       id="rect39183-5"
       width="31.243666"
       height="31.734661"
       x="324.42679"
       y="122.13607" />
    <text
       xml:space="preserve"
       style="font-size:14.85px;line-height:1.05;font-family:sans-serif;stroke-width:0.37125;fill:#000000;fill-opacity:1"
       x="331.58621"
       y="142.51433"
       id="text41467-3"><tspan
         sodipodi:role="line"
         id="tspan41465-5"
         style="stroke-width:0.37125;fill:#000000;fill-opacity:1"
         x="331.58621"
         y="142.51433">R2</tspan></text>
    <rect
       style="fill:#f1a695;fill-opacity:1;stroke:#ee5c28;stroke-width:4.20945;stroke-linejoin:round;stroke-miterlimit:4;stroke-dasharray:none;stroke-opacity:1;paint-order:markers stroke fill"
       id="rect39183"
       width="31.243666"
       height="31.734661"
       x="-144.04465"
       y="116.78072" />
    <text
       xml:space="preserve"
       style="font-size:14.85px;line-height:1.05;font-family:sans-serif;stroke-width:0.37125;fill:#000000;fill-opacity:1"
       x="-136.88528"
       y="137.15883"
       id="text41467"><tspan
         sodipodi:role="line"
         id="tspan41465"
         style="stroke-width:0.37125;fill:#000000;fill-opacity:1"
         x="-136.88528"
         y="137.15883">R1</tspan></text>
    <path
       style="fill:none;stroke:#000000;stroke-width:1.40315;stroke-linecap:butt;stroke-linejoin:miter;stroke-miterlimit:4;stroke-dasharray:none;stroke-opacity:1;marker-end:url(#Arrow2Lend)"
       d="M 88.777466,93.907706 C -73.553078,129.31432 85.926125,177.90028 85.926125,177.90028"
       id="path59014"
       sodipodi:nodetypes="cc" />
    <path
       style="fill:none;stroke:#000000;stroke-width:1.40315;stroke-linecap:butt;stroke-linejoin:miter;stroke-miterlimit:4;stroke-dasharray:none;stroke-opacity:1;marker-start:url(#marker59753)"
       d="m 121.59437,91.392779 c 162.33055,35.406621 2.85134,83.992581 2.85134,83.992581"
       id="path59014-7"
       sodipodi:nodetypes="cc" />
    <text
       xml:space="preserve"
       style="font-size:14.85px;line-height:1.05;font-family:sans-serif;stroke-width:0.37125;fill:#000000;fill-opacity:1"
       x="-166.40869"
       y="77.232689"
       id="text28236"><tspan
         sodipodi:role="line"
         id="tspan28234"
         style="stroke-width:0.37125;fill:#000000;fill-opacity:1"
         x="-166.40869"
         y="77.232689">R1 détenue</tspan><tspan
         sodipodi:role="line"
         style="stroke-width:0.37125;fill:#000000;fill-opacity:1"
         x="-166.40869"
         y="92.825188"
         id="tspan28238">    par P1</tspan></text>
    <text
       xml:space="preserve"
       style="font-size:14.85px;line-height:1.05;font-family:sans-serif;stroke-width:0.37125;fill:#000000;fill-opacity:1"
       x="296.08572"
       y="81.41526"
       id="text28236-6"><tspan
         sodipodi:role="line"
         id="tspan28234-7"
         style="stroke-width:0.37125;fill:#000000;fill-opacity:1"
         x="296.08572"
         y="81.41526">R2 détenue</tspan><tspan
         sodipodi:role="line"
         style="stroke-width:0.37125;fill:#000000;fill-opacity:1"
         x="296.08572"
         y="97.007759"
         id="tspan28238-5">    par P2</tspan></text>
    <path
       style="fill:none;stroke:#000000;stroke-width:1.40315;stroke-linecap:butt;stroke-linejoin:miter;stroke-miterlimit:4;stroke-dasharray:none;stroke-opacity:1;marker-end:url(#marker57213)"
       d="m 96.930204,61.26149 -0.809042,-33.96961 -224.518472,-0.20899 -0.56472,86.38203"
       id="path56770"
       sodipodi:nodetypes="cccc" />
    <text
       xml:space="preserve"
       style="font-size:14.85px;line-height:1.05;font-family:sans-serif;stroke-width:0.37125"
       x="-67.546021"
       y="251.68092"
       id="text5545"><tspan
         sodipodi:role="line"
         style="stroke-width:0.37125"
         x="-67.546021"
         y="251.68092"
         id="tspan5547">P1 commuté en P2</tspan></text>
    <text
       xml:space="preserve"
       style="font-size:14.85px;line-height:1.05;font-family:sans-serif;stroke-width:0.37125"
       x="162.32504"
       y="24.308672"
       id="text12983"><tspan
         sodipodi:role="line"
         id="tspan12981"
         style="stroke-width:0.37125"
         x="162.32504"
         y="24.308672">   P2 commuté</tspan><tspan
         sodipodi:role="line"
         style="stroke-width:0.37125"
         x="162.32504"
         y="39.901173"
         id="tspan12985">car demande R1</tspan></text>
    <text
       xml:space="preserve"
       style="font-size:14.85px;line-height:1.05;font-family:sans-serif;stroke-width:0.37125"
       x="207.99174"
       y="250.43117"
       id="text34943"><tspan
         sodipodi:role="line"
         id="tspan34941"
         style="stroke-width:0.37125"
         x="207.99174"
         y="250.43117" /></text>
    <ellipse
       style="fill:#beeefc;fill-opacity:0;stroke:#35f320;stroke-width:1.40315;stroke-linejoin:round;stroke-opacity:1;paint-order:markers stroke fill"
       id="path46730"
       cx="-70.941864"
       cy="15.865291"
       rx="7.850563"
       ry="7.5453444" />
    <text
       xml:space="preserve"
       style="font-size:14.85px;line-height:1.05;font-family:sans-serif;stroke-width:0.37125"
       x="-75.426994"
       y="20.795696"
       id="text24111"><tspan
         sodipodi:role="line"
         id="tspan24109"
         style="fill:#35f320;fill-opacity:1;stroke-width:0.37125"
         x="-75.426994"
         y="20.795696">1</tspan></text>
    <ellipse
       style="fill:#beeefc;fill-opacity:0;stroke:#35f320;stroke-width:1.40315;stroke-linejoin:round;stroke-opacity:1;paint-order:markers stroke fill"
       id="path46730-3"
       cx="-83.571144"
       cy="246.06673"
       rx="7.850563"
       ry="7.5453444" />
    <text
       xml:space="preserve"
       style="font-size:14.85px;line-height:1.05;font-family:sans-serif;stroke-width:0.37125"
       x="-88.056274"
       y="250.99713"
       id="text24111-6"><tspan
         sodipodi:role="line"
         id="tspan24109-7"
         style="fill:#35f320;fill-opacity:1;stroke-width:0.37125"
         x="-88.056274"
         y="250.99713">2</tspan></text>
    <ellipse
       style="fill:#beeefc;fill-opacity:0;stroke:#35f320;stroke-width:1.40315;stroke-linejoin:round;stroke-opacity:1;paint-order:markers stroke fill"
       id="path46730-3-5"
       cx="158.38295"
       cy="246.58228"
       rx="7.850563"
       ry="7.5453444" />
    <text
       xml:space="preserve"
       style="font-size:14.85px;line-height:1.05;font-family:sans-serif;stroke-width:0.37125"
       x="153.89781"
       y="251.51268"
       id="text24111-6-3"><tspan
         sodipodi:role="line"
         id="tspan24109-7-5"
         style="fill:#35f320;fill-opacity:1;stroke-width:0.37125"
         x="153.89781"
         y="251.51268">3</tspan></text>
    <ellipse
       style="fill:#beeefc;fill-opacity:0;stroke:#35f320;stroke-width:1.40315;stroke-linejoin:round;stroke-opacity:1;paint-order:markers stroke fill"
       id="path46730-3-5-6"
       cx="160.1089"
       cy="16.394623"
       rx="7.850563"
       ry="7.5453444" />
    <text
       xml:space="preserve"
       style="font-size:14.85px;line-height:1.05;font-family:sans-serif;stroke-width:0.37125"
       x="155.62376"
       y="21.325027"
       id="text24111-6-3-2"><tspan
         sodipodi:role="line"
         id="tspan24109-7-5-9"
         style="fill:#35f320;fill-opacity:1;stroke-width:0.37125"
         x="155.62376"
         y="21.325027">4</tspan></text>
    <text
       xml:space="preserve"
       style="font-size:14.85px;line-height:1.05;font-family:sans-serif;stroke-width:0.37125"
       x="-56.122757"
       y="22.952709"
       id="text69381"><tspan
         sodipodi:role="line"
         id="tspan69379"
         style="stroke-width:0.37125"
         x="-56.122757"
         y="22.952709">P1 demande R1</tspan></text>
    <text
       xml:space="preserve"
       style="font-size:14.85px;line-height:1.05;font-family:sans-serif;stroke-width:0.37125"
       x="172.57195"
       y="252.07491"
       id="text74467"><tspan
         sodipodi:role="line"
         id="tspan74465"
         style="stroke-width:0.37125"
         x="172.57195"
         y="252.07491">P2 demande R2</tspan></text>
  </g>
</svg>
