<?xml version="1.0" encoding="iso-8859-1"?>
<!-- Generator: Adobe Illustrator 18.1.1, SVG Export Plug-In . SVG Version: 6.00 Build 0)  -->
<svg version="1.1" id="Capa_1" xmlns="http://www.w3.org/2000/svg" xmlns:xlink="http://www.w3.org/1999/xlink" x="0px" y="0px"
	 viewBox="0 0 194.138 194.138" style="enable-background:new 0 0 194.138 194.138;" xml:space="preserve">
<g>
	<path style="fill:#010002;" d="M178.004,101.303l16.134-4.219l-16.134-4.236c-2.142-41.374-35.342-74.574-76.716-76.722
		L97.063,0.003l-4.225,16.122c-41.374,2.148-74.562,35.354-76.71,76.728L0,97.084l16.128,4.219
		c2.142,41.374,35.336,74.568,76.71,76.704l4.225,16.128l4.225-16.128C142.668,175.871,175.862,142.677,178.004,101.303z
		 M97.057,165.584c-37.758,0-68.506-30.735-68.506-68.5c0-37.782,30.747-68.524,68.506-68.524c37.788,0,68.524,30.741,68.524,68.524
		C165.581,134.848,134.839,165.584,97.057,165.584z M109.516,97.132l-11.94-58.947l-12.972,58.72H84.58v0.072v0.042h0.024
		l11.94,58.953l12.972-58.726h0.024l-0.012-0.072l0.012-0.042H109.516z M89.437,96.947l8.073-36.452l7.381,36.589L89.437,96.947z
		 M58.076,88.742h1.772l-4.63,16.654h-1.653H51.9l-2.661-13.103l-2.631,13.103h-1.629h-1.665l-4.624-16.654h1.796h1.826
		l2.775,12.196l2.399-12.196h1.838h1.862l2.399,12.077l2.775-12.077H58.076z M155.455,102.442v1.48v1.468h-12.644V88.736h12.238
		v1.474v1.474h-8.753v3.556h8.145v1.408v1.456h-8.145v4.338H155.455z"/>
</g>
<g>
</g>
<g>
</g>
<g>
</g>
<g>
</g>
<g>
</g>
<g>
</g>
<g>
</g>
<g>
</g>
<g>
</g>
<g>
</g>
<g>
</g>
<g>
</g>
<g>
</g>
<g>
</g>
<g>
</g>
</svg>
