<?xml version="1.0" encoding="UTF-8" standalone="no"?>
<!-- Created with Inkscape (http://www.inkscape.org/) -->

<svg
   width="400px"
   height="250px"
   viewBox="0 0 210 297"
   version="1.1"
   id="svg5"
   inkscape:version="1.1.2 (0a00cf5339, 2022-02-04, custom)"
   sodipodi:docname="left-join.svg"
   xmlns:inkscape="http://www.inkscape.org/namespaces/inkscape"
   xmlns:sodipodi="http://sodipodi.sourceforge.net/DTD/sodipodi-0.dtd"
   xmlns="http://www.w3.org/2000/svg"
   xmlns:svg="http://www.w3.org/2000/svg">
  <sodipodi:namedview
     id="namedview7"
     pagecolor="#ffffff"
     bordercolor="#666666"
     borderopacity="1.0"
     inkscape:pageshadow="2"
     inkscape:pageopacity="0.0"
     inkscape:pagecheckerboard="0"
     inkscape:document-units="mm"
     showgrid="false"
     inkscape:zoom="3.1108586"
     inkscape:cx="166.51352"
     inkscape:cy="147.22624"
     inkscape:window-width="3769"
     inkscape:window-height="2132"
     inkscape:window-x="71"
     inkscape:window-y="0"
     inkscape:window-maximized="1"
     inkscape:current-layer="layer1"
     inkscape:lockguides="false" />
  <defs
     id="defs2" />
  <g
     inkscape:label="Calque 1"
     inkscape:groupmode="layer"
     id="layer1">
    <ellipse
       style="fill:none;fill-opacity:1;stroke:#ed1522;stroke-width:2.58792;stroke-linejoin:round;stroke-miterlimit:4;stroke-dasharray:none;stroke-opacity:1;paint-order:markers stroke fill"
       id="path846"
       cx="17.194143"
       cy="147.01381"
       rx="139.76109"
       ry="140.67958" />
    <ellipse
       style="fill:none;fill-opacity:1;stroke:#ed1522;stroke-width:2.58628535;stroke-linejoin:round;stroke-miterlimit:4;stroke-dasharray:none;stroke-opacity:1;paint-order:markers stroke fill"
       id="path846-3"
       cx="199.27524"
       cy="146.56873"
       rx="139.76109"
       ry="140.67958" />
    <path
       style="fill:#79c8f9;fill-opacity:1;stroke:#ed1522;stroke-width:3.14305512;stroke-linejoin:round;stroke-miterlimit:4;stroke-dasharray:none;stroke-opacity:1;paint-order:markers stroke fill"
       d="M 103.91271,247.01745 C 81.408483,225.49604 66.910815,197.09637 62.391703,165.68138 c -1.412127,-9.81659 -1.417256,-28.40841 -0.01119,-38.28925 1.204957,-8.46369 4.460886,-21.48478 7.258004,-29.026042 4.83154,-13.026257 14.126716,-29.302234 22.7837,-39.894566 3.522701,-4.310227 15.052273,-16.136171 15.731803,-16.136171 0.65452,0 12.44274,12.297085 15.9928,16.683159 12.17174,15.038151 21.7337,33.958158 26.66157,52.75456 2.87803,10.97784 3.89354,18.44018 4.21753,30.99203 0.33257,12.88434 -0.25428,20.56803 -2.4153,31.62475 -4.19452,21.461 -14.45432,43.41379 -28.14058,60.21216 -4.20139,5.1567 -12.69729,14.19318 -14.60839,15.53781 l -1.54668,1.08826 z"
       id="path2144" />
    <text
       xml:space="preserve"
       style="font-size:79.2px;line-height:1.05;font-family:sans-serif;stroke-width:0.495"
       x="200.87695"
       y="163.61127"
       id="text9305-6"><tspan
         sodipodi:role="line"
         id="tspan9303-7"
         style="font-size:79.2px;fill:#ed1522;fill-opacity:1;stroke-width:0.495"
         x="200.87695"
         y="163.61127">T2</tspan></text>
    <path
       style="fill:#79c8f9;fill-opacity:1;stroke:#ed1522;stroke-width:0.343639;stroke-linejoin:round;paint-order:markers stroke fill"
       d="M 112.51487,240.03584 C 52.433572,232.74564 7.7170317,180.33497 9.9204541,119.78856 10.541402,102.72593 14.180962,88.001404 21.550532,72.736887 31.801564,51.504023 47.67577,34.266604 67.827911,22.485392 108.45877,-1.2679512 159.49107,2.0255158 196.73055,30.80437 c 1.93775,1.497508 3.51955,2.748324 3.5151,2.779591 -0.005,0.03127 -2.54058,2.652832 -5.63585,5.825699 -22.28923,22.848005 -34.04106,51.852366 -34.04106,84.01574 0,26.61536 7.83348,50.45081 23.53135,71.60038 4.0973,5.52025 12.33268,14.74339 14.93819,16.72989 0.91854,0.70031 1.66065,1.41632 1.64914,1.59112 -0.0346,0.52556 -6.24987,5.21337 -11.42416,8.61657 -14.64457,9.63194 -32.21531,16.0144 -49.72635,18.06277 -7.02976,0.82231 -20.28578,0.82708 -27.02204,0.01 z"
       id="path2753"
       transform="matrix(1.188,0,0,1.188,-132.6,0)" />
    <text
       xml:space="preserve"
       style="font-size:79.2px;line-height:1.05;font-family:sans-serif;fill:#79c8f9;fill-opacity:1;stroke-width:0.56126;stroke-miterlimit:4;stroke-dasharray:none"
       x="-54.228573"
       y="167.68137"
       id="text9305"><tspan
         sodipodi:role="line"
         id="tspan9303"
         style="font-size:79.2px;fill:#ed1522;fill-opacity:1;stroke-width:0.56126;stroke-miterlimit:4;stroke-dasharray:none"
         x="-54.228573"
         y="167.68137">T1</tspan></text>
  </g>
</svg>
