digraph G {
 node [shape=circle]
0 [style=bold, color=red];
1 [style=bold, color=red];
2 [style=bold, color=red];
3 [style=bold, color=red];
4 [style=bold, color=red];
5 [style=bold, color=red];
6 [style=bold, color=red];
7;
8;
9;
10;
11 [style=bold, color=red];
12 [style=bold, color=red];
13 [style=bold, color=red];
0 -> 2 [style=bold, label=2];
1 -> 0 [style=bold, label=3, color=red];
1 -> 11 [style=bold, label=5, color=red];
2 -> 1 [style=bold, label=1, color=red];
2 -> 5 [style=bold, label=1, color=red];
2 -> 6 [style=bold, label=3, color=red];
3 -> 0 [style=bold, label=4];
3 -> 2 [style=bold, label=1];
4 -> 1 [style=bold, label=6];
6 -> 11 [style=bold, label=5];
7 -> 9 [style=bold, label=2];
8 -> 9 [style=bold, label=1];
8 -> 10 [style=bold, label=1];
9 -> 10 [style=bold, label=2];
11 -> 12 [style=bold, label=5, color=red];
11 -> 13 [style=bold, label=5, color=red];
12 -> 3 [style=bold, label=5, color=red];
13 -> 4 [style=bold, label=5, color=red];
}