digraph G {
 node [shape=circle]
0;
1;
2;
3;
4;
5;
6;
7;
8;
9;
10;
11;
12;
13;
14 [style=bold, color=red];
0 -> 2 [style=bold, label=2];
1 -> 0 [style=bold, label=3];
1 -> 11 [style=bold, label=5];
2 -> 1 [style=bold, label=1];
2 -> 5 [style=bold, label=1];
2 -> 6 [style=bold, label=3];
3 -> 0 [style=bold, label=4];
3 -> 2 [style=bold, label=1];
4 -> 1 [style=bold, label=6];
6 -> 11 [style=bold, label=5];
7 -> 9 [style=bold, label=2];
8 -> 9 [style=bold, label=1];
8 -> 10 [style=bold, label=1];
9 -> 10 [style=bold, label=2];
11 -> 12 [style=bold, label=5];
11 -> 13 [style=bold, label=5];
12 -> 3 [style=bold, label=5];
13 -> 4 [style=bold, label=5];
14 -> 2 [style=bold, label=7];
}